\relax 
\providecommand*\new@tpo@label[2]{}
\catcode `"\active 
\abx@aux@refcontext{nty/global//global/global}
\@writefile{toc}{\boolfalse {citerequest}\boolfalse {citetracker}\boolfalse {pagetracker}\boolfalse {backtracker}\relax }
\@writefile{lof}{\boolfalse {citerequest}\boolfalse {citetracker}\boolfalse {pagetracker}\boolfalse {backtracker}\relax }
\@writefile{lot}{\boolfalse {citerequest}\boolfalse {citetracker}\boolfalse {pagetracker}\boolfalse {backtracker}\relax }
\babel@aux{ngerman}{}
\pgfsyspdfmark {pgfid1}{4033230}{49979481}
\@writefile{toc}{\defcounter {refsection}{0}\relax }\@writefile{toc}{\contentsline {chapter}{\nonumberline Kurzfassung}{3}}
\@writefile{lof}{\defcounter {refsection}{0}\relax }\@writefile{lof}{\addvspace {10\p@ }}
\@writefile{lot}{\defcounter {refsection}{0}\relax }\@writefile{lot}{\addvspace {10\p@ }}
\@writefile{lol}{\defcounter {refsection}{0}\relax }\@writefile{lol}{\addvspace {10\p@ }}
\abx@aux@cite{gpgpu_programmierung}
\abx@aux@segm{0}{0}{gpgpu_programmierung}
\abx@aux@cite{informationsverarbeitung_im_menschlichen_gehirn}
\abx@aux@segm{0}{0}{informationsverarbeitung_im_menschlichen_gehirn}
\abx@aux@cite{wiki-kuenstliches_neuronales_netz}
\abx@aux@segm{0}{0}{wiki-kuenstliches_neuronales_netz}
\abx@aux@segm{0}{0}{wiki-kuenstliches_neuronales_netz}
\abx@aux@segm{0}{0}{wiki-kuenstliches_neuronales_netz}
\@writefile{toc}{\defcounter {refsection}{0}\relax }\@writefile{toc}{\contentsline {chapter}{\numberline {1}Motivation}{7}}
\@writefile{lof}{\defcounter {refsection}{0}\relax }\@writefile{lof}{\addvspace {10\p@ }}
\@writefile{lot}{\defcounter {refsection}{0}\relax }\@writefile{lot}{\addvspace {10\p@ }}
\@writefile{lol}{\defcounter {refsection}{0}\relax }\@writefile{lol}{\addvspace {10\p@ }}
\newlabel{chap:motivation}{{1}{7}}
\newlabel{chap:motivation@cref}{{[chapter][1][]1}{[1][7][]7}}
\@writefile{lot}{\defcounter {refsection}{0}\relax }\@writefile{lot}{\contentsline {table}{\numberline {\relax 1.1}{\ignorespaces Einsatzgebiete k\IeC {\"u}nstlicher neuronaler Netze}}{8}}
\newlabel{tab:einsatz-gebiete}{{\relax 1.1}{8}}
\newlabel{tab:einsatz-gebiete@cref}{{[table][1][1]\relax 1.1}{[1][7][]8}}
\abx@aux@cite{wiki-nervenzelle}
\abx@aux@segm{0}{0}{wiki-nervenzelle}
\abx@aux@cite{wiki-synapse}
\abx@aux@segm{0}{0}{wiki-synapse}
\abx@aux@segm{0}{0}{informationsverarbeitung_im_menschlichen_gehirn}
\@writefile{toc}{\defcounter {refsection}{0}\relax }\@writefile{toc}{\contentsline {chapter}{\numberline {2}Neurologischer Hintergrund}{9}}
\@writefile{lof}{\defcounter {refsection}{0}\relax }\@writefile{lof}{\addvspace {10\p@ }}
\@writefile{lot}{\defcounter {refsection}{0}\relax }\@writefile{lot}{\addvspace {10\p@ }}
\@writefile{lol}{\defcounter {refsection}{0}\relax }\@writefile{lol}{\addvspace {10\p@ }}
\newlabel{chap:neurologische_grundlagen}{{2}{9}}
\newlabel{chap:neurologische_grundlagen@cref}{{[chapter][2][]2}{[1][9][]9}}
\@writefile{toc}{\defcounter {refsection}{0}\relax }\@writefile{toc}{\contentsline {section}{\numberline {2.1}Neuronen}{9}}
\newlabel{sec:neuron}{{2.1}{9}}
\newlabel{sec:neuron@cref}{{[section][1][2]2.1}{[1][9][]9}}
\@writefile{toc}{\defcounter {refsection}{0}\relax }\@writefile{toc}{\contentsline {section}{\numberline {2.2}Synapsen}{9}}
\newlabel{sec:synapse}{{2.2}{9}}
\newlabel{sec:synapse@cref}{{[section][2][2]2.2}{[1][9][]9}}
\abx@aux@segm{0}{0}{informationsverarbeitung_im_menschlichen_gehirn}
\@writefile{lof}{\defcounter {refsection}{0}\relax }\@writefile{lof}{\contentsline {figure}{\numberline {\relax 2.1}{\ignorespaces Neuron}}{10}}
\newlabel{fig:neuron}{{\relax 2.1}{10}}
\newlabel{fig:neuron@cref}{{[figure][1][2]\relax 2.1}{[1][9][]10}}
\@writefile{toc}{\defcounter {refsection}{0}\relax }\@writefile{toc}{\contentsline {section}{\numberline {2.3}Ablauf von Erregungs\IeC {\"u}bertragung}{10}}
\newlabel{sec:ablauf_von_erregungsuebertragung}{{2.3}{10}}
\newlabel{sec:ablauf_von_erregungsuebertragung@cref}{{[section][3][2]2.3}{[1][10][]10}}
\abx@aux@segm{0}{0}{wiki-nervenzelle}
\abx@aux@cite{refraktaerzeit}
\abx@aux@segm{0}{0}{refraktaerzeit}
\abx@aux@cite{wiki-neuronales_netz}
\abx@aux@segm{0}{0}{wiki-neuronales_netz}
\abx@aux@cite{neuronale_plastizitaet_gehirn_und_wirklichkeit_veraendern}
\abx@aux@segm{0}{0}{neuronale_plastizitaet_gehirn_und_wirklichkeit_veraendern}
\@writefile{toc}{\defcounter {refsection}{0}\relax }\@writefile{toc}{\contentsline {section}{\numberline {2.4}Neuronale Netze}{11}}
\newlabel{sec:neuronales_netz}{{2.4}{11}}
\newlabel{sec:neuronales_netz@cref}{{[section][4][2]2.4}{[1][11][]11}}
\@writefile{toc}{\defcounter {refsection}{0}\relax }\@writefile{toc}{\contentsline {section}{\numberline {2.5}Neuronale Plastizit\IeC {\"a}t}{11}}
\newlabel{sec:neuronale_plastizitaet}{{2.5}{11}}
\newlabel{sec:neuronale_plastizitaet@cref}{{[section][5][2]2.5}{[1][11][]11}}
\abx@aux@cite{wiki-neuronale_plastizitaet}
\abx@aux@segm{0}{0}{wiki-neuronale_plastizitaet}
\abx@aux@segm{0}{0}{informationsverarbeitung_im_menschlichen_gehirn}
\abx@aux@segm{0}{0}{informationsverarbeitung_im_menschlichen_gehirn}
\abx@aux@cite{engramm}
\abx@aux@segm{0}{0}{engramm}
\abx@aux@segm{0}{0}{informationsverarbeitung_im_menschlichen_gehirn}
\@writefile{toc}{\defcounter {refsection}{0}\relax }\@writefile{toc}{\contentsline {section}{\numberline {2.6}Lernvorgang}{12}}
\newlabel{sec:Lernvorgang}{{2.6}{12}}
\newlabel{sec:Lernvorgang@cref}{{[section][6][2]2.6}{[1][12][]12}}
\@writefile{toc}{\defcounter {refsection}{0}\relax }\@writefile{toc}{\contentsline {subsection}{\numberline {2.6.1}Kurzzeitged\IeC {\"a}chtnis}{12}}
\@writefile{toc}{\defcounter {refsection}{0}\relax }\@writefile{toc}{\contentsline {subsection}{\numberline {2.6.2}Langzeitged\IeC {\"a}chtnis}{12}}
\@writefile{toc}{\defcounter {refsection}{0}\relax }\@writefile{toc}{\contentsline {chapter}{\numberline {3}Grundlagen}{13}}
\@writefile{lof}{\defcounter {refsection}{0}\relax }\@writefile{lof}{\addvspace {10\p@ }}
\@writefile{lot}{\defcounter {refsection}{0}\relax }\@writefile{lot}{\addvspace {10\p@ }}
\@writefile{lol}{\defcounter {refsection}{0}\relax }\@writefile{lol}{\addvspace {10\p@ }}
\newlabel{chap:grundlagen}{{3}{13}}
\newlabel{chap:grundlagen@cref}{{[chapter][3][]3}{[1][13][]13}}
\@writefile{toc}{\defcounter {refsection}{0}\relax }\@writefile{toc}{\contentsline {section}{\numberline {3.1}K\IeC {\"u}nstliches Neuron}{13}}
\newlabel{sec:kuenstliches_neuron}{{3.1}{13}}
\newlabel{sec:kuenstliches_neuron@cref}{{[section][1][3]3.1}{[1][13][]13}}
\@writefile{lof}{\defcounter {refsection}{0}\relax }\@writefile{lof}{\contentsline {figure}{\numberline {\relax 3.1}{\ignorespaces K\IeC {\"u}nstliches Neuron}}{13}}
\newlabel{fig:kuenstliches_neuron}{{\relax 3.1}{13}}
\newlabel{fig:kuenstliches_neuron@cref}{{[figure][1][3]\relax 3.1}{[1][13][]13}}
\abx@aux@segm{0}{0}{wiki-kuenstliches_neuronales_netz}
\abx@aux@cite{transferfunktionen}
\abx@aux@segm{0}{0}{transferfunktionen}
\abx@aux@segm{0}{0}{transferfunktionen}
\@writefile{toc}{\defcounter {refsection}{0}\relax }\@writefile{toc}{\contentsline {subsection}{\numberline {3.1.1}\IeC {\"U}bertragungsfunktion}{15}}
\newlabel{subsec:uebertragungsfunktion}{{3.1.1}{15}}
\newlabel{subsec:uebertragungsfunktion@cref}{{[subsection][1][3,1]3.1.1}{[1][14][]15}}
\newlabel{skalar_produkt_uebertragung}{{\relax 3.1}{15}}
\newlabel{skalar_produkt_uebertragung@cref}{{[equation][1][3]\relax 3.1}{[1][14][]15}}
\@writefile{toc}{\defcounter {refsection}{0}\relax }\@writefile{toc}{\contentsline {subsection}{\numberline {3.1.2}Aktivierungsfunktion}{15}}
\newlabel{subsec:aktivierungsfunktion}{{3.1.2}{15}}
\newlabel{subsec:aktivierungsfunktion@cref}{{[subsection][2][3,1]3.1.2}{[1][15][]15}}
\@writefile{lof}{\defcounter {refsection}{0}\relax }\@writefile{lof}{\contentsline {figure}{\numberline {\relax 3.2}{\ignorespaces Lineare Funktion}}{16}}
\newlabel{fig:lineare_funktion}{{\relax 3.2}{16}}
\newlabel{fig:lineare_funktion@cref}{{[figure][2][3]\relax 3.2}{[1][15][]16}}
\@writefile{lof}{\defcounter {refsection}{0}\relax }\@writefile{lof}{\contentsline {figure}{\numberline {\relax 3.3}{\ignorespaces St\IeC {\"u}ckweise lineare Funktion}}{16}}
\newlabel{fig:stueckweise_lineare_funktion}{{\relax 3.3}{16}}
\newlabel{fig:stueckweise_lineare_funktion@cref}{{[figure][3][3]\relax 3.3}{[1][16][]16}}
\abx@aux@cite{wiki-kuenstliches_neuron}
\abx@aux@segm{0}{0}{wiki-kuenstliches_neuron}
\abx@aux@segm{0}{0}{transferfunktionen}
\@writefile{lof}{\defcounter {refsection}{0}\relax }\@writefile{lof}{\contentsline {figure}{\numberline {\relax 3.4}{\ignorespaces Schwellenwertfunktion}}{17}}
\newlabel{fig:schwellenwert_funktion}{{\relax 3.4}{17}}
\newlabel{fig:schwellenwert_funktion@cref}{{[figure][4][3]\relax 3.4}{[1][16][]17}}
\newlabel{sigmoide_aktivierungs_funktion}{{\relax 3.2}{17}}
\newlabel{sigmoide_aktivierungs_funktion@cref}{{[equation][2][3]\relax 3.2}{[1][17][]17}}
\@writefile{lof}{\defcounter {refsection}{0}\relax }\@writefile{lof}{\contentsline {figure}{\numberline {\relax 3.5}{\ignorespaces Sigmoide Funktion}}{18}}
\newlabel{fig:sigmoide_funktion}{{\relax 3.5}{18}}
\newlabel{fig:sigmoide_funktion@cref}{{[figure][5][3]\relax 3.5}{[1][17][]18}}
\@writefile{lof}{\defcounter {refsection}{0}\relax }\@writefile{lof}{\contentsline {figure}{\numberline {\relax 3.6}{\ignorespaces Tangens hyperbolicus}}{18}}
\newlabel{fig:tangens_hyperbolicus}{{\relax 3.6}{18}}
\newlabel{fig:tangens_hyperbolicus@cref}{{[figure][6][3]\relax 3.6}{[1][18][]18}}
\abx@aux@cite{softmax}
\abx@aux@segm{0}{0}{softmax}
\abx@aux@cite{error_functions}
\abx@aux@segm{0}{0}{error_functions}
\@writefile{toc}{\defcounter {refsection}{0}\relax }\@writefile{toc}{\contentsline {section}{\numberline {3.2}Fehlerfunktion}{19}}
\newlabel{sec:fehler_funktion}{{3.2}{19}}
\newlabel{sec:fehler_funktion@cref}{{[section][2][3]3.2}{[1][19][]19}}
\newlabel{L1_loss}{{\relax 3.3}{19}}
\newlabel{L1_loss@cref}{{[equation][3][3]\relax 3.3}{[1][19][]19}}
\newlabel{L2_loss}{{\relax 3.4}{19}}
\newlabel{L2_loss@cref}{{[equation][4][3]\relax 3.4}{[1][19][]19}}
\newlabel{crossentropy_loss}{{\relax 3.5}{19}}
\newlabel{crossentropy_loss@cref}{{[equation][5][3]\relax 3.5}{[1][19][]19}}
\@writefile{toc}{\defcounter {refsection}{0}\relax }\@writefile{toc}{\contentsline {section}{\numberline {3.3}K\IeC {\"u}nstliche Neuronale Netze}{19}}
\@writefile{lof}{\defcounter {refsection}{0}\relax }\@writefile{lof}{\contentsline {figure}{\numberline {\relax 3.7}{\ignorespaces Einlagiges Perzeptron}}{20}}
\newlabel{fig:perzeptron}{{\relax 3.7}{20}}
\newlabel{fig:perzeptron@cref}{{[figure][7][3]\relax 3.7}{[1][20][]20}}
\abx@aux@cite{wiki-perzeptron}
\abx@aux@segm{0}{0}{wiki-perzeptron}
\abx@aux@cite{perceptron}
\abx@aux@segm{0}{0}{perceptron}
\abx@aux@segm{0}{0}{wiki-kuenstliches_neuronales_netz}
\abx@aux@cite{neuronalesnetz_de}
\abx@aux@segm{0}{0}{neuronalesnetz_de}
\@writefile{lof}{\defcounter {refsection}{0}\relax }\@writefile{lof}{\contentsline {figure}{\numberline {\relax 3.8}{\ignorespaces Mehrlagiges Perzeptron}}{21}}
\newlabel{fig:mehrlagiges_perzeptron}{{\relax 3.8}{21}}
\newlabel{fig:mehrlagiges_perzeptron@cref}{{[figure][8][3]\relax 3.8}{[1][21][]21}}
\@writefile{toc}{\defcounter {refsection}{0}\relax }\@writefile{toc}{\contentsline {section}{\numberline {3.4}Lernen eines k\IeC {\"u}nstlichen neuronalen Netzes}{21}}
\abx@aux@segm{0}{0}{wiki-kuenstliches_neuronales_netz}
\@writefile{toc}{\defcounter {refsection}{0}\relax }\@writefile{toc}{\contentsline {chapter}{\numberline {4}Vorstellung spezifischer Modelltypen}{23}}
\@writefile{lof}{\defcounter {refsection}{0}\relax }\@writefile{lof}{\addvspace {10\p@ }}
\@writefile{lot}{\defcounter {refsection}{0}\relax }\@writefile{lot}{\addvspace {10\p@ }}
\@writefile{lol}{\defcounter {refsection}{0}\relax }\@writefile{lol}{\addvspace {10\p@ }}
\newlabel{chap:different_types}{{4}{23}}
\newlabel{chap:different_types@cref}{{[chapter][4][]4}{[1][23][]23}}
\abx@aux@cite{auto_encoder}
\abx@aux@segm{0}{0}{auto_encoder}
\abx@aux@cite{auto_encoder_und_convolutional_neural_networks}
\abx@aux@segm{0}{0}{auto_encoder_und_convolutional_neural_networks}
\@writefile{toc}{\defcounter {refsection}{0}\relax }\@writefile{toc}{\contentsline {section}{\numberline {4.1}Autoencoder}{24}}
\newlabel{auto_encoder}{{4.1}{24}}
\newlabel{auto_encoder@cref}{{[section][1][4]4.1}{[1][24][]24}}
\@writefile{lof}{\defcounter {refsection}{0}\relax }\@writefile{lof}{\contentsline {figure}{\numberline {\relax 4.1}{\ignorespaces Autoencoder}}{24}}
\newlabel{img:auto_encoder}{{\relax 4.1}{24}}
\newlabel{img:auto_encoder@cref}{{[figure][1][4]\relax 4.1}{[1][24][]24}}
\abx@aux@segm{0}{0}{auto_encoder}
\abx@aux@segm{0}{0}{auto_encoder_und_convolutional_neural_networks}
\abx@aux@cite{backpropagation_example}
\abx@aux@segm{0}{0}{backpropagation_example}
\abx@aux@cite{backpropagation_algorithm}
\abx@aux@segm{0}{0}{backpropagation_algorithm}
\@writefile{toc}{\defcounter {refsection}{0}\relax }\@writefile{toc}{\contentsline {subsection}{\numberline {4.1.1}Definitionen}{25}}
\newlabel{auto_encoder_defs}{{4.1.1}{25}}
\newlabel{auto_encoder_defs@cref}{{[subsection][1][4,1]4.1.1}{[1][24][]25}}
\abx@aux@segm{0}{0}{auto_encoder}
\abx@aux@segm{0}{0}{auto_encoder_und_convolutional_neural_networks}
\@writefile{toc}{\defcounter {refsection}{0}\relax }\@writefile{toc}{\contentsline {subsection}{\numberline {4.1.2}Netzdurchlauf}{26}}
\newlabel{auto_encoder_ablauf}{{4.1.2}{26}}
\newlabel{auto_encoder_ablauf@cref}{{[subsection][2][4,1]4.1.2}{[1][25][]26}}
\newlabel{minimierungs_ziel}{{\relax 4.1}{26}}
\newlabel{minimierungs_ziel@cref}{{[equation][1][4]\relax 4.1}{[1][26][]26}}
\@writefile{toc}{\defcounter {refsection}{0}\relax }\@writefile{toc}{\contentsline {subsection}{\numberline {4.1.3}Lernen mit Backpropagation}{27}}
\newlabel{auto_encoder_lernen}{{4.1.3}{27}}
\newlabel{auto_encoder_lernen@cref}{{[subsection][3][4,1]4.1.3}{[1][26][]27}}
\newlabel{anteil_ausgabe_neuronen}{{\relax 4.2}{27}}
\newlabel{anteil_ausgabe_neuronen@cref}{{[equation][2][4]\relax 4.2}{[1][27][]27}}
\abx@aux@segm{0}{0}{backpropagation_example}
\abx@aux@segm{0}{0}{backpropagation_algorithm}
\abx@aux@cite{denoising_autoencoders}
\abx@aux@segm{0}{0}{denoising_autoencoders}
\newlabel{anteil_zwischen_neuronen}{{\relax 4.4}{28}}
\newlabel{anteil_zwischen_neuronen@cref}{{[equation][4][4]\relax 4.4}{[1][28][]28}}
\newlabel{anteil_gewicht_ausgabe_neuronen}{{\relax 4.5}{28}}
\newlabel{anteil_gewicht_ausgabe_neuronen@cref}{{[equation][5][4]\relax 4.5}{[1][28][]28}}
\newlabel{anteil_gewicht_zwischen_neuronen}{{\relax 4.6}{28}}
\newlabel{anteil_gewicht_zwischen_neuronen@cref}{{[equation][6][4]\relax 4.6}{[1][28][]28}}
\abx@aux@segm{0}{0}{auto_encoder}
\@writefile{toc}{\defcounter {refsection}{0}\relax }\@writefile{toc}{\contentsline {subsection}{\numberline {4.1.4}Beispiel}{29}}
\newlabel{auto_encoder_example}{{4.1.4}{29}}
\newlabel{auto_encoder_example@cref}{{[subsection][4][4,1]4.1.4}{[1][28][]29}}
\@writefile{lof}{\defcounter {refsection}{0}\relax }\@writefile{lof}{\contentsline {figure}{\numberline {\relax 4.2}{\ignorespaces Entrauschender Autoencoder}}{29}}
\newlabel{fig:handwritten_denoising_autoencoder}{{\relax 4.2}{29}}
\newlabel{fig:handwritten_denoising_autoencoder@cref}{{[figure][2][4]\relax 4.2}{[1][29][]29}}
\@writefile{toc}{\defcounter {refsection}{0}\relax }\@writefile{toc}{\contentsline {subsection}{\numberline {4.1.5}Bewertung}{29}}
\newlabel{autoencoder_bewertung}{{4.1.5}{29}}
\newlabel{autoencoder_bewertung@cref}{{[subsection][5][4,1]4.1.5}{[1][29][]29}}
\@writefile{toc}{\defcounter {refsection}{0}\relax }\@writefile{toc}{\contentsline {section}{\numberline {4.2}Rekurrente neuronale Netze}{30}}
\newlabel{rnn}{{4.2}{30}}
\newlabel{rnn@cref}{{[section][2][4]4.2}{[1][30][]30}}
\abx@aux@cite{rnn_introduction}
\abx@aux@segm{0}{0}{rnn_introduction}
\@writefile{lof}{\defcounter {refsection}{0}\relax }\@writefile{lof}{\contentsline {figure}{\numberline {\relax 4.3}{\ignorespaces Rekurrente Netz-Architekturen}}{31}}
\newlabel{fig:rnn_relations}{{\relax 4.3}{31}}
\newlabel{fig:rnn_relations@cref}{{[figure][3][4]\relax 4.3}{[1][30][]31}}
\@writefile{toc}{\defcounter {refsection}{0}\relax }\@writefile{toc}{\contentsline {subsection}{\numberline {4.2.1}Definitionen}{31}}
\newlabel{rnn_defs}{{4.2.1}{31}}
\newlabel{rnn_defs@cref}{{[subsection][1][4,2]4.2.1}{[1][31][]31}}
\abx@aux@cite{rnn_tutorial_introduction}
\abx@aux@segm{0}{0}{rnn_tutorial_introduction}
\abx@aux@segm{0}{0}{rnn_tutorial_introduction}
\newlabel{rnn_error}{{\relax 4.7}{32}}
\newlabel{rnn_error@cref}{{[equation][7][4]\relax 4.7}{[1][32][]32}}
\@writefile{toc}{\defcounter {refsection}{0}\relax }\@writefile{toc}{\contentsline {subsection}{\numberline {4.2.2}Netzdurchlauf}{32}}
\newlabel{subsec:rnn_netzdurchlauf}{{4.2.2}{32}}
\newlabel{subsec:rnn_netzdurchlauf@cref}{{[subsection][2][4,2]4.2.2}{[1][32][]32}}
\@writefile{lof}{\defcounter {refsection}{0}\relax }\@writefile{lof}{\contentsline {figure}{\numberline {\relax 4.4}{\ignorespaces Ausgeklapptes rekurrentes neuronales Netz}}{33}}
\newlabel{fig:rnn_unfold}{{\relax 4.4}{33}}
\newlabel{fig:rnn_unfold@cref}{{[figure][4][4]\relax 4.4}{[1][32][]33}}
\@writefile{toc}{\defcounter {refsection}{0}\relax }\@writefile{toc}{\contentsline {subsection}{\numberline {4.2.3}Lernen mit Backpropagation}{33}}
\abx@aux@cite{rnn_tutorial_bptt_and_vanishing_gradients}
\abx@aux@segm{0}{0}{rnn_tutorial_bptt_and_vanishing_gradients}
\abx@aux@segm{0}{0}{rnn_tutorial_bptt_and_vanishing_gradients}
\newlabel{v_basic_formula}{{\relax 4.8}{34}}
\newlabel{v_basic_formula@cref}{{[equation][8][4]\relax 4.8}{[1][34][]34}}
\newlabel{V_basic_formula}{{\relax 4.9}{34}}
\newlabel{V_basic_formula@cref}{{[equation][9][4]\relax 4.9}{[1][34][]34}}
\newlabel{U_basic_formula}{{\relax 4.10}{34}}
\newlabel{U_basic_formula@cref}{{[equation][10][4]\relax 4.10}{[1][34][]34}}
\@writefile{lof}{\defcounter {refsection}{0}\relax }\@writefile{lof}{\contentsline {figure}{\numberline {\relax 4.5}{\ignorespaces Rekursiver Fehleranteil}}{35}}
\newlabel{fig:rnn_example_error_part}{{\relax 4.5}{35}}
\newlabel{fig:rnn_example_error_part@cref}{{[figure][5][4]\relax 4.5}{[1][34][]35}}
\newlabel{W_basic_formula}{{\relax 4.11}{35}}
\newlabel{W_basic_formula@cref}{{[equation][11][4]\relax 4.11}{[1][34][]35}}
\abx@aux@segm{0}{0}{rnn_tutorial_bptt_and_vanishing_gradients}
\abx@aux@cite{rnn_guide}
\abx@aux@segm{0}{0}{rnn_guide}
\abx@aux@cite{andrej_karpathy}
\abx@aux@segm{0}{0}{andrej_karpathy}
\@writefile{toc}{\defcounter {refsection}{0}\relax }\@writefile{toc}{\contentsline {subsection}{\numberline {4.2.4}Beispiel}{36}}
\newlabel{rnn_example}{{4.2.4}{36}}
\newlabel{rnn_example@cref}{{[subsection][4][4,2]4.2.4}{[1][36][]36}}
\newlabel{lst:rnn_code}{{4.2.4}{36}}
\newlabel{lst:rnn_code@cref}{{[subsection][4][4,2]4.2.4}{[1][36][]36}}
\@writefile{lof}{\defcounter {refsection}{0}\relax }\@writefile{lof}{\contentsline {figure}{\numberline {\relax 4.6}{\ignorespaces Von rekurrentem neuronalen Netz generierter C-Code}}{36}}
\newlabel{fig:rnn_code}{{\relax 4.6}{36}}
\newlabel{fig:rnn_code@cref}{{[figure][6][4]\relax 4.6}{[1][36][]36}}
\@writefile{toc}{\defcounter {refsection}{0}\relax }\@writefile{toc}{\contentsline {subsection}{\numberline {4.2.5}Bewertung}{37}}
\abx@aux@cite{wiki-selbstorganisierende_karte}
\abx@aux@segm{0}{0}{wiki-selbstorganisierende_karte}
\@writefile{toc}{\defcounter {refsection}{0}\relax }\@writefile{toc}{\contentsline {section}{\numberline {4.3}Selbstorganisierende Karten}{38}}
\newlabel{sec:selbstorganisierende_karten}{{4.3}{38}}
\newlabel{sec:selbstorganisierende_karten@cref}{{[section][3][4]4.3}{[1][38][]38}}
\@writefile{lof}{\defcounter {refsection}{0}\relax }\@writefile{lof}{\contentsline {figure}{\numberline {\relax 4.7}{\ignorespaces Aufbau selbstorganisierender Karte}}{38}}
\newlabel{img:som}{{\relax 4.7}{38}}
\newlabel{img:som@cref}{{[figure][7][4]\relax 4.7}{[1][38][]38}}
\@writefile{toc}{\defcounter {refsection}{0}\relax }\@writefile{toc}{\contentsline {subsection}{\numberline {4.3.1}Definitionen}{39}}
\newlabel{som_defs}{{4.3.1}{39}}
\newlabel{som_defs@cref}{{[subsection][1][4,3]4.3.1}{[1][38][]39}}
\abx@aux@segm{0}{0}{wiki-selbstorganisierende_karte}
\abx@aux@segm{0}{0}{wiki-selbstorganisierende_karte}
\@writefile{toc}{\defcounter {refsection}{0}\relax }\@writefile{toc}{\contentsline {subsection}{\numberline {4.3.2}Ablauf}{40}}
\newlabel{som_ablauf}{{4.3.2}{40}}
\newlabel{som_ablauf@cref}{{[subsection][2][4,3]4.3.2}{[1][40][]40}}
\newlabel{som_weight_update}{{\relax 4.12}{40}}
\newlabel{som_weight_update@cref}{{[equation][12][4]\relax 4.12}{[1][40][]40}}
\abx@aux@segm{0}{0}{wiki-selbstorganisierende_karte}
\abx@aux@cite{wiki-self_organizing_map}
\abx@aux@segm{0}{0}{wiki-self_organizing_map}
\@writefile{lof}{\defcounter {refsection}{0}\relax }\@writefile{lof}{\contentsline {figure}{\numberline {\relax 4.8}{\ignorespaces Lernphase selbstorganisierender Karte}}{41}}
\newlabel{img:som_training}{{\relax 4.8}{41}}
\newlabel{img:som_training@cref}{{[figure][8][4]\relax 4.8}{[1][40][]41}}
\@writefile{toc}{\defcounter {refsection}{0}\relax }\@writefile{toc}{\contentsline {subsection}{\numberline {4.3.3}Beispiel}{41}}
\newlabel{som_example}{{4.3.3}{41}}
\newlabel{som_example@cref}{{[subsection][3][4,3]4.3.3}{[1][41][]41}}
\abx@aux@segm{0}{0}{wiki-self_organizing_map}
\@writefile{lof}{\defcounter {refsection}{0}\relax }\@writefile{lof}{\contentsline {figure}{\numberline {\relax 4.9}{\ignorespaces Beispiel selbstorganisierender Karte}}{42}}
\newlabel{img:us_congress_votes}{{\relax 4.9}{42}}
\newlabel{img:us_congress_votes@cref}{{[figure][9][4]\relax 4.9}{[1][41][]42}}
\@writefile{toc}{\defcounter {refsection}{0}\relax }\@writefile{toc}{\contentsline {subsection}{\numberline {4.3.4}Bewertung}{42}}
\newlabel{som_bewertung}{{4.3.4}{42}}
\newlabel{som_bewertung@cref}{{[subsection][4][4,3]4.3.4}{[1][42][]42}}
\abx@aux@segm{0}{0}{informationsverarbeitung_im_menschlichen_gehirn}
\abx@aux@segm{0}{0}{informationsverarbeitung_im_menschlichen_gehirn}
\@writefile{toc}{\defcounter {refsection}{0}\relax }\@writefile{toc}{\contentsline {chapter}{\numberline {5}Allgemeine Bewertung}{43}}
\@writefile{lof}{\defcounter {refsection}{0}\relax }\@writefile{lof}{\addvspace {10\p@ }}
\@writefile{lot}{\defcounter {refsection}{0}\relax }\@writefile{lot}{\addvspace {10\p@ }}
\@writefile{lol}{\defcounter {refsection}{0}\relax }\@writefile{lol}{\addvspace {10\p@ }}
\newlabel{chap:bewertung}{{5}{43}}
\newlabel{chap:bewertung@cref}{{[chapter][5][]5}{[1][43][]43}}
\@writefile{toc}{\defcounter {refsection}{0}\relax }\@writefile{toc}{\contentsline {section}{\numberline {5.1}Vergleich von k\IeC {\"u}nstlichen neuronalen Netzen mit dem menschlichen Gehirn}{43}}
\newlabel{sec:vergleich_knn_und_gehirn}{{5.1}{43}}
\newlabel{sec:vergleich_knn_und_gehirn@cref}{{[section][1][5]5.1}{[1][43][]43}}
\@writefile{lot}{\defcounter {refsection}{0}\relax }\@writefile{lot}{\contentsline {table}{\numberline {\relax 5.1}{\ignorespaces Vergleich von k\IeC {\"u}nstlichen neuronalen Netzen und Gehirn}}{43}}
\newlabel{tab:vergleich_von_knn_und_gehirn}{{\relax 5.1}{43}}
\newlabel{tab:vergleich_von_knn_und_gehirn@cref}{{[table][1][5]\relax 5.1}{[1][43][]43}}
\@writefile{toc}{\defcounter {refsection}{0}\relax }\@writefile{toc}{\contentsline {section}{\numberline {5.2}Neurologische Plausibilit\IeC {\"a}t}{43}}
\newlabel{sec:neurologische_plausibilitaet}{{5.2}{43}}
\newlabel{sec:neurologische_plausibilitaet@cref}{{[section][2][5]5.2}{[1][43][]43}}
\abx@aux@segm{0}{0}{wiki-kuenstliches_neuronales_netz}
\@writefile{toc}{\defcounter {refsection}{0}\relax }\@writefile{toc}{\contentsline {section}{\numberline {5.3}Ungeeignete Probleme}{44}}
\newlabel{sec:ungeeignete_probleme}{{5.3}{44}}
\newlabel{sec:ungeeignete_probleme@cref}{{[section][3][5]5.3}{[1][44][]44}}
\abx@aux@cite{monitoring_lernt_selbst}
\abx@aux@segm{0}{0}{monitoring_lernt_selbst}
\abx@aux@cite{article-ki_lernt_bewegungen}
\abx@aux@segm{0}{0}{article-ki_lernt_bewegungen}
\@writefile{toc}{\defcounter {refsection}{0}\relax }\@writefile{toc}{\contentsline {chapter}{\numberline {6}Ausblick}{45}}
\@writefile{lof}{\defcounter {refsection}{0}\relax }\@writefile{lof}{\addvspace {10\p@ }}
\@writefile{lot}{\defcounter {refsection}{0}\relax }\@writefile{lot}{\addvspace {10\p@ }}
\@writefile{lol}{\defcounter {refsection}{0}\relax }\@writefile{lol}{\addvspace {10\p@ }}
\newlabel{chap:ausblick}{{6}{45}}
\newlabel{chap:ausblick@cref}{{[chapter][6][]6}{[1][45][]45}}
\@writefile{toc}{\defcounter {refsection}{0}\relax }\@writefile{toc}{\contentsline {section}{\numberline {6.1}Ethische Aspekte}{45}}
\newlabel{sec:ethische_aspekte}{{6.1}{45}}
\newlabel{sec:ethische_aspekte@cref}{{[section][1][6]6.1}{[1][45][]45}}
