\relax 
\providecommand\hyper@newdestlabel[2]{}
\providecommand\HyperFirstAtBeginDocument{\AtBeginDocument}
\HyperFirstAtBeginDocument{\ifx\hyper@anchor\@undefined
\global\let\oldcontentsline\contentsline
\gdef\contentsline#1#2#3#4{\oldcontentsline{#1}{#2}{#3}}
\global\let\oldnewlabel\newlabel
\gdef\newlabel#1#2{\newlabelxx{#1}#2}
\gdef\newlabelxx#1#2#3#4#5#6{\oldnewlabel{#1}{{#2}{#3}}}
\AtEndDocument{\ifx\hyper@anchor\@undefined
\let\contentsline\oldcontentsline
\let\newlabel\oldnewlabel
\fi}
\fi}
\global\let\hyper@last\relax 
\gdef\HyperFirstAtBeginDocument#1{#1}
\providecommand\HyField@AuxAddToFields[1]{}
\providecommand\HyField@AuxAddToCoFields[2]{}
\catcode `"\active 
\abx@aux@refcontext{nty/global//global/global}
\pgfsyspdfmark {pgfid2}{0}{17900937}
\@writefile{toc}{\boolfalse {citerequest}\boolfalse {citetracker}\boolfalse {pagetracker}\boolfalse {backtracker}\relax }
\@writefile{lof}{\boolfalse {citerequest}\boolfalse {citetracker}\boolfalse {pagetracker}\boolfalse {backtracker}\relax }
\@writefile{lot}{\boolfalse {citerequest}\boolfalse {citetracker}\boolfalse {pagetracker}\boolfalse {backtracker}\relax }
\babel@aux{ngerman}{}
\@writefile{nav}{\defcounter {refsection}{0}\relax }\@writefile{nav}{\headcommand {\slideentry {0}{0}{1}{1/1}{}{0}}}
\@writefile{nav}{\defcounter {refsection}{0}\relax }\@writefile{nav}{\headcommand {\beamer@framepages {1}{1}}}
\pgfsyspdfmark {pgfid3}{0}{17900937}
\@writefile{nav}{\defcounter {refsection}{0}\relax }\@writefile{nav}{\headcommand {\slideentry {0}{0}{2}{2/2}{}{0}}}
\@writefile{nav}{\defcounter {refsection}{0}\relax }\@writefile{nav}{\headcommand {\beamer@framepages {2}{2}}}
\pgfsyspdfmark {pgfid4}{0}{17900937}
\@writefile{nav}{\defcounter {refsection}{0}\relax }\@writefile{nav}{\headcommand {\slideentry {0}{0}{3}{3/3}{}{0}}}
\@writefile{nav}{\defcounter {refsection}{0}\relax }\@writefile{nav}{\headcommand {\beamer@framepages {3}{3}}}
\pgfsyspdfmark {pgfid5}{0}{17900937}
\@writefile{nav}{\defcounter {refsection}{0}\relax }\@writefile{nav}{\headcommand {\slideentry {0}{0}{4}{4/4}{}{0}}}
\@writefile{nav}{\defcounter {refsection}{0}\relax }\@writefile{nav}{\headcommand {\beamer@framepages {4}{4}}}
\abx@aux@cite{wiki-nervenzelle}
\abx@aux@segm{0}{0}{wiki-nervenzelle}
\pgfsyspdfmark {pgfid6}{0}{17900937}
\@writefile{toc}{\defcounter {refsection}{0}\relax }\@writefile{toc}{\beamer@subsectionintoc {0}{1}{Neuronen}{5}{0}{0}}
\@writefile{nav}{\defcounter {refsection}{0}\relax }\@writefile{nav}{\headcommand {\beamer@subsectionpages {1}{4}}}
\@writefile{nav}{\defcounter {refsection}{0}\relax }\@writefile{nav}{\headcommand {\beamer@subsectionentry {0}{0}{1}{5}{Neuronen}}}
\newlabel{fig:neuron}{{1}{5}{Neuronen}{Doc-Start}{}}
\newlabel{fig:neuron@cref}{{[figure][1][]1}{[1][5][]5}}
\@writefile{snm}{\defcounter {refsection}{0}\relax }\@writefile{snm}{\beamer@slide {fig:neuron}{5}}
\@writefile{nav}{\defcounter {refsection}{0}\relax }\@writefile{nav}{\headcommand {\slideentry {0}{1}{1}{5/5}{Neuronen}{0}}}
\@writefile{nav}{\defcounter {refsection}{0}\relax }\@writefile{nav}{\headcommand {\beamer@framepages {5}{5}}}
\abx@aux@cite{wiki-synapse}
\abx@aux@segm{0}{0}{wiki-synapse}
\pgfsyspdfmark {pgfid7}{0}{17900937}
\@writefile{toc}{\defcounter {refsection}{0}\relax }\@writefile{toc}{\beamer@subsectionintoc {0}{2}{Synapsen}{6}{0}{0}}
\@writefile{nav}{\defcounter {refsection}{0}\relax }\@writefile{nav}{\headcommand {\beamer@subsectionpages {5}{5}}}
\@writefile{nav}{\defcounter {refsection}{0}\relax }\@writefile{nav}{\headcommand {\beamer@subsectionentry {0}{0}{2}{6}{Synapsen}}}
\@writefile{nav}{\defcounter {refsection}{0}\relax }\@writefile{nav}{\headcommand {\slideentry {0}{2}{1}{6/6}{Synapsen}{0}}}
\@writefile{nav}{\defcounter {refsection}{0}\relax }\@writefile{nav}{\headcommand {\beamer@framepages {6}{6}}}
\pgfsyspdfmark {pgfid8}{0}{17900937}
\@writefile{toc}{\defcounter {refsection}{0}\relax }\@writefile{toc}{\beamer@subsectionintoc {0}{3}{Ablauf von Erregungs\IeC {\"u}bertragung}{7}{0}{0}}
\@writefile{nav}{\defcounter {refsection}{0}\relax }\@writefile{nav}{\headcommand {\beamer@subsectionpages {6}{6}}}
\@writefile{nav}{\defcounter {refsection}{0}\relax }\@writefile{nav}{\headcommand {\beamer@subsectionentry {0}{0}{3}{7}{Ablauf von Erregungs\IeC {\"u}bertragung}}}
\@writefile{nav}{\defcounter {refsection}{0}\relax }\@writefile{nav}{\headcommand {\slideentry {0}{3}{1}{7/7}{Ablauf von Erregungs\IeC {\"u}bertragung}{0}}}
\@writefile{nav}{\defcounter {refsection}{0}\relax }\@writefile{nav}{\headcommand {\beamer@framepages {7}{7}}}
\pgfsyspdfmark {pgfid9}{0}{17900937}
\@writefile{nav}{\defcounter {refsection}{0}\relax }\@writefile{nav}{\headcommand {\slideentry {0}{3}{2}{8/8}{Ablauf von Erregungs\IeC {\"u}bertragung}{0}}}
\@writefile{nav}{\defcounter {refsection}{0}\relax }\@writefile{nav}{\headcommand {\beamer@framepages {8}{8}}}
\pgfsyspdfmark {pgfid10}{0}{17900937}
\@writefile{toc}{\defcounter {refsection}{0}\relax }\@writefile{toc}{\beamer@subsectionintoc {0}{4}{Neuronale Netze}{9}{0}{0}}
\@writefile{nav}{\defcounter {refsection}{0}\relax }\@writefile{nav}{\headcommand {\beamer@subsectionpages {7}{8}}}
\@writefile{nav}{\defcounter {refsection}{0}\relax }\@writefile{nav}{\headcommand {\beamer@subsectionentry {0}{0}{4}{9}{Neuronale Netze}}}
\@writefile{nav}{\defcounter {refsection}{0}\relax }\@writefile{nav}{\headcommand {\slideentry {0}{4}{1}{9/9}{Neuronale Netze}{0}}}
\@writefile{nav}{\defcounter {refsection}{0}\relax }\@writefile{nav}{\headcommand {\beamer@framepages {9}{9}}}
\pgfsyspdfmark {pgfid11}{0}{17900937}
\@writefile{toc}{\defcounter {refsection}{0}\relax }\@writefile{toc}{\beamer@subsectionintoc {0}{5}{Lernvorgang}{10}{0}{0}}
\@writefile{nav}{\defcounter {refsection}{0}\relax }\@writefile{nav}{\headcommand {\beamer@subsectionpages {9}{9}}}
\@writefile{nav}{\defcounter {refsection}{0}\relax }\@writefile{nav}{\headcommand {\beamer@subsectionentry {0}{0}{5}{10}{Lernvorgang}}}
\@writefile{nav}{\defcounter {refsection}{0}\relax }\@writefile{nav}{\headcommand {\slideentry {0}{5}{1}{10/10}{Lernvorgang}{0}}}
\@writefile{nav}{\defcounter {refsection}{0}\relax }\@writefile{nav}{\headcommand {\beamer@framepages {10}{10}}}
\pgfsyspdfmark {pgfid12}{0}{17900937}
\@writefile{toc}{\defcounter {refsection}{0}\relax }\@writefile{toc}{\beamer@subsectionintoc {0}{6}{K\IeC {\"u}nstliches Neuron}{11}{0}{0}}
\@writefile{nav}{\defcounter {refsection}{0}\relax }\@writefile{nav}{\headcommand {\beamer@subsectionpages {10}{10}}}
\@writefile{nav}{\defcounter {refsection}{0}\relax }\@writefile{nav}{\headcommand {\beamer@subsectionentry {0}{0}{6}{11}{K\IeC {\"u}nstliches Neuron}}}
\@writefile{nav}{\defcounter {refsection}{0}\relax }\@writefile{nav}{\headcommand {\slideentry {0}{6}{1}{11/11}{K\IeC {\"u}nstliches Neuron}{0}}}
\@writefile{nav}{\defcounter {refsection}{0}\relax }\@writefile{nav}{\headcommand {\beamer@framepages {11}{11}}}
\pgfsyspdfmark {pgfid13}{0}{17900937}
\newlabel{fig:kuenstliches_neuron}{{2}{12}{Künstliches Neuron}{Doc-Start}{}}
\newlabel{fig:kuenstliches_neuron@cref}{{[figure][2][]2}{[1][12][]12}}
\@writefile{snm}{\defcounter {refsection}{0}\relax }\@writefile{snm}{\beamer@slide {fig:kuenstliches_neuron}{12}}
\@writefile{nav}{\defcounter {refsection}{0}\relax }\@writefile{nav}{\headcommand {\slideentry {0}{6}{2}{12/12}{K\IeC {\"u}nstliches Neuron}{0}}}
\@writefile{nav}{\defcounter {refsection}{0}\relax }\@writefile{nav}{\headcommand {\beamer@framepages {12}{12}}}
\abx@aux@cite{wiki-kuenstliches_neuronales_netz}
\abx@aux@segm{0}{0}{wiki-kuenstliches_neuronales_netz}
\abx@aux@cite{transferfunktionen}
\abx@aux@segm{0}{0}{transferfunktionen}
\pgfsyspdfmark {pgfid14}{0}{17900937}
\@writefile{nav}{\defcounter {refsection}{0}\relax }\@writefile{nav}{\headcommand {\slideentry {0}{6}{3}{13/13}{K\IeC {\"u}nstliches Neuron}{0}}}
\@writefile{nav}{\defcounter {refsection}{0}\relax }\@writefile{nav}{\headcommand {\beamer@framepages {13}{13}}}
\pgfsyspdfmark {pgfid15}{0}{17900937}
\@writefile{toc}{\defcounter {refsection}{0}\relax }\@writefile{toc}{\beamer@subsubsectionintoc {0}{6}{1}{\IeC {\"U}bertragungsfunktion}{14}{0}{0}}
\@writefile{nav}{\defcounter {refsection}{0}\relax }\@writefile{nav}{\headcommand {\beamer@subsubsectionentry {0}{0}{6}{1}{14}{\IeC {\"U}bertragungsfunktion}}}
\@writefile{nav}{\defcounter {refsection}{0}\relax }\@writefile{nav}{\headcommand {\slideentry {0}{6}{4}{14/14}{K\IeC {\"u}nstliches Neuron}{0}}}
\@writefile{nav}{\defcounter {refsection}{0}\relax }\@writefile{nav}{\headcommand {\beamer@framepages {14}{14}}}
\pgfsyspdfmark {pgfid16}{0}{17900937}
\@writefile{toc}{\defcounter {refsection}{0}\relax }\@writefile{toc}{\beamer@subsubsectionintoc {0}{6}{2}{Aktivierungsfunktion}{15}{0}{0}}
\@writefile{nav}{\defcounter {refsection}{0}\relax }\@writefile{nav}{\headcommand {\beamer@subsubsectionentry {0}{0}{6}{2}{15}{Aktivierungsfunktion}}}
\@writefile{nav}{\defcounter {refsection}{0}\relax }\@writefile{nav}{\headcommand {\slideentry {0}{6}{5}{15/15}{K\IeC {\"u}nstliches Neuron}{0}}}
\@writefile{nav}{\defcounter {refsection}{0}\relax }\@writefile{nav}{\headcommand {\beamer@framepages {15}{15}}}
\pgfsyspdfmark {pgfid19}{0}{17900937}
\@writefile{nav}{\defcounter {refsection}{0}\relax }\@writefile{nav}{\headcommand {\slideentry {0}{6}{6}{16/16}{K\IeC {\"u}nstliches Neuron}{0}}}
\@writefile{nav}{\defcounter {refsection}{0}\relax }\@writefile{nav}{\headcommand {\beamer@framepages {16}{16}}}
\pgfsyspdfmark {pgfid22}{0}{17900937}
\@writefile{nav}{\defcounter {refsection}{0}\relax }\@writefile{nav}{\headcommand {\slideentry {0}{6}{7}{17/17}{K\IeC {\"u}nstliches Neuron}{0}}}
\@writefile{nav}{\defcounter {refsection}{0}\relax }\@writefile{nav}{\headcommand {\beamer@framepages {17}{17}}}
\pgfsyspdfmark {pgfid25}{0}{17900937}
\@writefile{nav}{\defcounter {refsection}{0}\relax }\@writefile{nav}{\headcommand {\slideentry {0}{6}{8}{18/18}{K\IeC {\"u}nstliches Neuron}{0}}}
\@writefile{nav}{\defcounter {refsection}{0}\relax }\@writefile{nav}{\headcommand {\beamer@framepages {18}{18}}}
\pgfsyspdfmark {pgfid26}{0}{17900937}
\@writefile{toc}{\defcounter {refsection}{0}\relax }\@writefile{toc}{\beamer@subsectionintoc {0}{7}{Fehlerfunktion}{19}{0}{0}}
\@writefile{nav}{\defcounter {refsection}{0}\relax }\@writefile{nav}{\headcommand {\beamer@subsectionpages {11}{18}}}
\@writefile{nav}{\defcounter {refsection}{0}\relax }\@writefile{nav}{\headcommand {\beamer@subsectionentry {0}{0}{7}{19}{Fehlerfunktion}}}
\@writefile{nav}{\defcounter {refsection}{0}\relax }\@writefile{nav}{\headcommand {\slideentry {0}{7}{1}{19/19}{Fehlerfunktion}{0}}}
\@writefile{nav}{\defcounter {refsection}{0}\relax }\@writefile{nav}{\headcommand {\beamer@framepages {19}{19}}}
\pgfsyspdfmark {pgfid27}{0}{17900937}
\@writefile{nav}{\defcounter {refsection}{0}\relax }\@writefile{nav}{\headcommand {\slideentry {0}{7}{2}{20/20}{Fehlerfunktion}{0}}}
\@writefile{nav}{\defcounter {refsection}{0}\relax }\@writefile{nav}{\headcommand {\beamer@framepages {20}{20}}}
\pgfsyspdfmark {pgfid28}{0}{17900937}
\@writefile{toc}{\defcounter {refsection}{0}\relax }\@writefile{toc}{\beamer@subsectionintoc {0}{8}{K\IeC {\"u}nstliche Neuronale Netze}{21}{0}{0}}
\@writefile{nav}{\defcounter {refsection}{0}\relax }\@writefile{nav}{\headcommand {\beamer@subsectionpages {19}{20}}}
\@writefile{nav}{\defcounter {refsection}{0}\relax }\@writefile{nav}{\headcommand {\beamer@subsectionentry {0}{0}{8}{21}{K\IeC {\"u}nstliche Neuronale Netze}}}
\@writefile{nav}{\defcounter {refsection}{0}\relax }\@writefile{nav}{\headcommand {\slideentry {0}{8}{1}{21/21}{K\IeC {\"u}nstliche Neuronale Netze}{0}}}
\@writefile{nav}{\defcounter {refsection}{0}\relax }\@writefile{nav}{\headcommand {\beamer@framepages {21}{21}}}
\pgfsyspdfmark {pgfid29}{0}{17900937}
\newlabel{fig:perzeptron}{{3}{22}{Künstliche Neuronale Netze}{Doc-Start}{}}
\newlabel{fig:perzeptron@cref}{{[figure][3][]3}{[1][22][]22}}
\@writefile{snm}{\defcounter {refsection}{0}\relax }\@writefile{snm}{\beamer@slide {fig:perzeptron}{22}}
\@writefile{nav}{\defcounter {refsection}{0}\relax }\@writefile{nav}{\headcommand {\slideentry {0}{8}{2}{22/22}{K\IeC {\"u}nstliche Neuronale Netze}{0}}}
\@writefile{nav}{\defcounter {refsection}{0}\relax }\@writefile{nav}{\headcommand {\beamer@framepages {22}{22}}}
\pgfsyspdfmark {pgfid30}{0}{17900937}
\newlabel{fig:mehrlagiges_perzeptron}{{4}{23}{Künstliche Neuronale Netze}{Doc-Start}{}}
\newlabel{fig:mehrlagiges_perzeptron@cref}{{[figure][4][]4}{[1][23][]23}}
\@writefile{snm}{\defcounter {refsection}{0}\relax }\@writefile{snm}{\beamer@slide {fig:mehrlagiges_perzeptron}{23}}
\@writefile{nav}{\defcounter {refsection}{0}\relax }\@writefile{nav}{\headcommand {\slideentry {0}{8}{3}{23/23}{K\IeC {\"u}nstliche Neuronale Netze}{0}}}
\@writefile{nav}{\defcounter {refsection}{0}\relax }\@writefile{nav}{\headcommand {\beamer@framepages {23}{23}}}
\pgfsyspdfmark {pgfid31}{0}{17900937}
\@writefile{toc}{\defcounter {refsection}{0}\relax }\@writefile{toc}{\beamer@subsectionintoc {0}{9}{Lernen eines k\IeC {\"u}nstlichen neuronalen Netzes}{24}{0}{0}}
\@writefile{nav}{\defcounter {refsection}{0}\relax }\@writefile{nav}{\headcommand {\beamer@subsectionpages {21}{23}}}
\@writefile{nav}{\defcounter {refsection}{0}\relax }\@writefile{nav}{\headcommand {\beamer@subsectionentry {0}{0}{9}{24}{Lernen eines k\IeC {\"u}nstlichen neuronalen Netzes}}}
\@writefile{nav}{\defcounter {refsection}{0}\relax }\@writefile{nav}{\headcommand {\slideentry {0}{9}{1}{24/24}{Lernen eines k\IeC {\"u}nstlichen neuronalen Netzes}{0}}}
\@writefile{nav}{\defcounter {refsection}{0}\relax }\@writefile{nav}{\headcommand {\beamer@framepages {24}{24}}}
\pgfsyspdfmark {pgfid32}{0}{17900937}
\@writefile{nav}{\defcounter {refsection}{0}\relax }\@writefile{nav}{\headcommand {\slideentry {0}{9}{2}{25/25}{Lernen eines k\IeC {\"u}nstlichen neuronalen Netzes}{0}}}
\@writefile{nav}{\defcounter {refsection}{0}\relax }\@writefile{nav}{\headcommand {\beamer@framepages {25}{25}}}
\pgfsyspdfmark {pgfid33}{0}{17900937}
\@writefile{nav}{\defcounter {refsection}{0}\relax }\@writefile{nav}{\headcommand {\slideentry {0}{9}{3}{26/26}{Lernen eines k\IeC {\"u}nstlichen neuronalen Netzes}{0}}}
\@writefile{nav}{\defcounter {refsection}{0}\relax }\@writefile{nav}{\headcommand {\beamer@framepages {26}{26}}}
\abx@aux@segm{0}{0}{wiki-kuenstliches_neuronales_netz}
\pgfsyspdfmark {pgfid34}{0}{17900937}
\@writefile{nav}{\defcounter {refsection}{0}\relax }\@writefile{nav}{\headcommand {\slideentry {0}{9}{4}{27/27}{Lernen eines k\IeC {\"u}nstlichen neuronalen Netzes}{0}}}
\@writefile{nav}{\defcounter {refsection}{0}\relax }\@writefile{nav}{\headcommand {\beamer@framepages {27}{27}}}
\abx@aux@cite{auto_encoder}
\abx@aux@segm{0}{0}{auto_encoder}
\pgfsyspdfmark {pgfid35}{0}{17900937}
\@writefile{toc}{\defcounter {refsection}{0}\relax }\@writefile{toc}{\beamer@subsectionintoc {0}{10}{Autoencoder}{28}{0}{0}}
\@writefile{nav}{\defcounter {refsection}{0}\relax }\@writefile{nav}{\headcommand {\beamer@subsectionpages {24}{27}}}
\@writefile{nav}{\defcounter {refsection}{0}\relax }\@writefile{nav}{\headcommand {\beamer@subsectionentry {0}{0}{10}{28}{Autoencoder}}}
\@writefile{nav}{\defcounter {refsection}{0}\relax }\@writefile{nav}{\headcommand {\slideentry {0}{10}{1}{28/28}{Autoencoder}{0}}}
\@writefile{nav}{\defcounter {refsection}{0}\relax }\@writefile{nav}{\headcommand {\beamer@framepages {28}{28}}}
\abx@aux@segm{0}{0}{auto_encoder}
\abx@aux@cite{auto_encoder_und_convolutional_neural_networks}
\abx@aux@segm{0}{0}{auto_encoder_und_convolutional_neural_networks}
\pgfsyspdfmark {pgfid36}{0}{17900937}
\@writefile{nav}{\defcounter {refsection}{0}\relax }\@writefile{nav}{\headcommand {\slideentry {0}{10}{2}{29/29}{Autoencoder}{0}}}
\@writefile{nav}{\defcounter {refsection}{0}\relax }\@writefile{nav}{\headcommand {\beamer@framepages {29}{29}}}
\pgfsyspdfmark {pgfid37}{0}{17900937}
\newlabel{img:auto_encoder}{{5}{30}{Autoencoder}{Doc-Start}{}}
\newlabel{img:auto_encoder@cref}{{[figure][5][]5}{[1][30][]30}}
\@writefile{snm}{\defcounter {refsection}{0}\relax }\@writefile{snm}{\beamer@slide {img:auto_encoder}{30}}
\@writefile{nav}{\defcounter {refsection}{0}\relax }\@writefile{nav}{\headcommand {\slideentry {0}{10}{3}{30/30}{Autoencoder}{0}}}
\@writefile{nav}{\defcounter {refsection}{0}\relax }\@writefile{nav}{\headcommand {\beamer@framepages {30}{30}}}
\pgfsyspdfmark {pgfid38}{0}{17900937}
\@writefile{toc}{\defcounter {refsection}{0}\relax }\@writefile{toc}{\beamer@subsubsectionintoc {0}{10}{1}{Netzdurchlauf}{31}{0}{0}}
\@writefile{nav}{\defcounter {refsection}{0}\relax }\@writefile{nav}{\headcommand {\beamer@subsubsectionentry {0}{0}{10}{1}{31}{Netzdurchlauf}}}
\@writefile{nav}{\defcounter {refsection}{0}\relax }\@writefile{nav}{\headcommand {\slideentry {0}{10}{4}{31/31}{Autoencoder}{0}}}
\@writefile{nav}{\defcounter {refsection}{0}\relax }\@writefile{nav}{\headcommand {\beamer@framepages {31}{31}}}
\pgfsyspdfmark {pgfid39}{0}{17900937}
\@writefile{nav}{\defcounter {refsection}{0}\relax }\@writefile{nav}{\headcommand {\slideentry {0}{10}{5}{32/32}{Autoencoder}{0}}}
\@writefile{nav}{\defcounter {refsection}{0}\relax }\@writefile{nav}{\headcommand {\beamer@framepages {32}{32}}}
\pgfsyspdfmark {pgfid40}{0}{17900937}
\@writefile{nav}{\defcounter {refsection}{0}\relax }\@writefile{nav}{\headcommand {\slideentry {0}{10}{6}{33/33}{Autoencoder}{0}}}
\@writefile{nav}{\defcounter {refsection}{0}\relax }\@writefile{nav}{\headcommand {\beamer@framepages {33}{33}}}
\abx@aux@segm{0}{0}{auto_encoder}
\abx@aux@segm{0}{0}{auto_encoder_und_convolutional_neural_networks}
\pgfsyspdfmark {pgfid41}{0}{17900937}
\@writefile{nav}{\defcounter {refsection}{0}\relax }\@writefile{nav}{\headcommand {\slideentry {0}{10}{7}{34/34}{Autoencoder}{0}}}
\@writefile{nav}{\defcounter {refsection}{0}\relax }\@writefile{nav}{\headcommand {\beamer@framepages {34}{34}}}
\pgfsyspdfmark {pgfid42}{0}{17900937}
\@writefile{toc}{\defcounter {refsection}{0}\relax }\@writefile{toc}{\beamer@subsubsectionintoc {0}{10}{2}{Lernen mit Backpropagation}{35}{0}{0}}
\@writefile{nav}{\defcounter {refsection}{0}\relax }\@writefile{nav}{\headcommand {\beamer@subsubsectionentry {0}{0}{10}{2}{35}{Lernen mit Backpropagation}}}
\@writefile{nav}{\defcounter {refsection}{0}\relax }\@writefile{nav}{\headcommand {\slideentry {0}{10}{8}{35/35}{Autoencoder}{0}}}
\@writefile{nav}{\defcounter {refsection}{0}\relax }\@writefile{nav}{\headcommand {\beamer@framepages {35}{35}}}
\pgfsyspdfmark {pgfid43}{0}{17900937}
\@writefile{nav}{\defcounter {refsection}{0}\relax }\@writefile{nav}{\headcommand {\slideentry {0}{10}{9}{36/36}{Autoencoder}{0}}}
\@writefile{nav}{\defcounter {refsection}{0}\relax }\@writefile{nav}{\headcommand {\beamer@framepages {36}{36}}}
\pgfsyspdfmark {pgfid44}{0}{17900937}
\@writefile{nav}{\defcounter {refsection}{0}\relax }\@writefile{nav}{\headcommand {\slideentry {0}{10}{10}{37/37}{Autoencoder}{0}}}
\@writefile{nav}{\defcounter {refsection}{0}\relax }\@writefile{nav}{\headcommand {\beamer@framepages {37}{37}}}
\pgfsyspdfmark {pgfid45}{0}{17900937}
\@writefile{nav}{\defcounter {refsection}{0}\relax }\@writefile{nav}{\headcommand {\slideentry {0}{10}{11}{38/38}{Autoencoder}{0}}}
\@writefile{nav}{\defcounter {refsection}{0}\relax }\@writefile{nav}{\headcommand {\beamer@framepages {38}{38}}}
\abx@aux@cite{backpropagation_example}
\abx@aux@segm{0}{0}{backpropagation_example}
\abx@aux@cite{backpropagation_algorithm}
\abx@aux@segm{0}{0}{backpropagation_algorithm}
\pgfsyspdfmark {pgfid46}{0}{17900937}
\@writefile{nav}{\defcounter {refsection}{0}\relax }\@writefile{nav}{\headcommand {\slideentry {0}{10}{12}{39/39}{Autoencoder}{0}}}
\@writefile{nav}{\defcounter {refsection}{0}\relax }\@writefile{nav}{\headcommand {\beamer@framepages {39}{39}}}
\pgfsyspdfmark {pgfid47}{0}{17900937}
\@writefile{toc}{\defcounter {refsection}{0}\relax }\@writefile{toc}{\beamer@subsubsectionintoc {0}{10}{3}{Beispiel}{40}{0}{0}}
\@writefile{nav}{\defcounter {refsection}{0}\relax }\@writefile{nav}{\headcommand {\beamer@subsubsectionentry {0}{0}{10}{3}{40}{Beispiel}}}
\newlabel{fig:handwritten_denoising_autoencoder}{{6}{40}{Beispiel}{Doc-Start}{}}
\newlabel{fig:handwritten_denoising_autoencoder@cref}{{[figure][6][]6}{[1][40][]40}}
\@writefile{snm}{\defcounter {refsection}{0}\relax }\@writefile{snm}{\beamer@slide {fig:handwritten_denoising_autoencoder}{40}}
\@writefile{nav}{\defcounter {refsection}{0}\relax }\@writefile{nav}{\headcommand {\slideentry {0}{10}{13}{40/40}{Autoencoder}{0}}}
\@writefile{nav}{\defcounter {refsection}{0}\relax }\@writefile{nav}{\headcommand {\beamer@framepages {40}{40}}}
\abx@aux@segm{0}{0}{auto_encoder}
\pgfsyspdfmark {pgfid48}{0}{17900937}
\@writefile{toc}{\defcounter {refsection}{0}\relax }\@writefile{toc}{\beamer@subsubsectionintoc {0}{10}{4}{Bewertung}{41}{0}{0}}
\@writefile{nav}{\defcounter {refsection}{0}\relax }\@writefile{nav}{\headcommand {\beamer@subsubsectionentry {0}{0}{10}{4}{41}{Bewertung}}}
\@writefile{nav}{\defcounter {refsection}{0}\relax }\@writefile{nav}{\headcommand {\slideentry {0}{10}{14}{41/41}{Autoencoder}{0}}}
\@writefile{nav}{\defcounter {refsection}{0}\relax }\@writefile{nav}{\headcommand {\beamer@framepages {41}{41}}}
\pgfsyspdfmark {pgfid49}{0}{17900937}
\@writefile{toc}{\defcounter {refsection}{0}\relax }\@writefile{toc}{\beamer@subsectionintoc {0}{11}{Ungeeignete Probleme}{42}{0}{0}}
\@writefile{nav}{\defcounter {refsection}{0}\relax }\@writefile{nav}{\headcommand {\beamer@subsectionpages {28}{41}}}
\@writefile{nav}{\defcounter {refsection}{0}\relax }\@writefile{nav}{\headcommand {\beamer@subsectionentry {0}{0}{11}{42}{Ungeeignete Probleme}}}
\@writefile{nav}{\defcounter {refsection}{0}\relax }\@writefile{nav}{\headcommand {\slideentry {0}{11}{1}{42/42}{Ungeeignete Probleme}{0}}}
\@writefile{nav}{\defcounter {refsection}{0}\relax }\@writefile{nav}{\headcommand {\beamer@framepages {42}{42}}}
\abx@aux@cite{monitoring_lernt_selbst}
\abx@aux@segm{0}{0}{monitoring_lernt_selbst}
\pgfsyspdfmark {pgfid50}{0}{17900937}
\@writefile{nav}{\defcounter {refsection}{0}\relax }\@writefile{nav}{\headcommand {\slideentry {0}{11}{2}{43/43}{Ungeeignete Probleme}{0}}}
\@writefile{nav}{\defcounter {refsection}{0}\relax }\@writefile{nav}{\headcommand {\beamer@framepages {43}{43}}}
\pgfsyspdfmark {pgfid51}{0}{17900937}
\@writefile{nav}{\defcounter {refsection}{0}\relax }\@writefile{nav}{\headcommand {\beamer@subsectionpages {42}{43}}}
\@writefile{nav}{\defcounter {refsection}{0}\relax }\@writefile{nav}{\headcommand {\beamer@subsectionentry {0}{0}{12}{44}{Literatur}}}
\@writefile{nav}{\defcounter {refsection}{0}\relax }\@writefile{nav}{\headcommand {\slideentry {0}{12}{0}{44/44}{Ungeeignete Probleme}{0}}}
\@writefile{nav}{\defcounter {refsection}{0}\relax }\@writefile{nav}{\headcommand {\beamer@framepages {44}{44}}}
\pgfsyspdfmark {pgfid52}{0}{17900937}
\@writefile{nav}{\defcounter {refsection}{0}\relax }\@writefile{nav}{\headcommand {\slideentry {0}{12}{0}{44/45}{Ungeeignete Probleme}{0}}}
\@writefile{nav}{\defcounter {refsection}{0}\relax }\@writefile{nav}{\headcommand {\beamer@framepages {44}{45}}}
\pgfsyspdfmark {pgfid53}{0}{17900937}
\@writefile{nav}{\defcounter {refsection}{0}\relax }\@writefile{nav}{\headcommand {\slideentry {0}{12}{0}{44/46}{Ungeeignete Probleme}{0}}}
\@writefile{nav}{\defcounter {refsection}{0}\relax }\@writefile{nav}{\headcommand {\beamer@framepages {44}{46}}}
\pgfsyspdfmark {pgfid54}{0}{17900937}
\@writefile{nav}{\defcounter {refsection}{0}\relax }\@writefile{nav}{\headcommand {\slideentry {0}{12}{0}{44/47}{Ungeeignete Probleme}{0}}}
\@writefile{nav}{\defcounter {refsection}{0}\relax }\@writefile{nav}{\headcommand {\beamer@framepages {44}{47}}}
\pgfsyspdfmark {pgfid55}{0}{17900937}
\@writefile{nav}{\defcounter {refsection}{0}\relax }\@writefile{nav}{\headcommand {\slideentry {0}{12}{0}{44/48}{Ungeeignete Probleme}{0}}}
\@writefile{nav}{\defcounter {refsection}{0}\relax }\@writefile{nav}{\headcommand {\beamer@framepages {44}{48}}}
\pgfsyspdfmark {pgfid56}{0}{17900937}
\@writefile{nav}{\defcounter {refsection}{0}\relax }\@writefile{nav}{\headcommand {\slideentry {0}{12}{0}{44/49}{Ungeeignete Probleme}{0}}}
\@writefile{nav}{\defcounter {refsection}{0}\relax }\@writefile{nav}{\headcommand {\beamer@framepages {44}{49}}}
\@writefile{nav}{\headcommand {\beamer@partpages {1}{49}}}
\@writefile{nav}{\headcommand {\beamer@subsectionpages {42}{49}}}
\@writefile{nav}{\headcommand {\beamer@sectionpages {1}{49}}}
\@writefile{nav}{\headcommand {\beamer@documentpages {49}}}
\@writefile{nav}{\headcommand {\gdef \inserttotalframenumber {49}}}
\abx@aux@refcontextdefaultsdone
\abx@aux@defaultrefcontext{0}{transferfunktionen}{nty/global//global/global}
\abx@aux@defaultrefcontext{0}{rnn_tutorial_introduction}{nty/global//global/global}
\abx@aux@defaultrefcontext{0}{monitoring_lernt_selbst}{nty/global//global/global}
\abx@aux@defaultrefcontext{0}{andrej_karpathy}{nty/global//global/global}
\abx@aux@defaultrefcontext{0}{informationsverarbeitung_im_menschlichen_gehirn}{nty/global//global/global}
\abx@aux@defaultrefcontext{0}{backpropagation_example}{nty/global//global/global}
\abx@aux@defaultrefcontext{0}{auto_encoder_und_convolutional_neural_networks}{nty/global//global/global}
\abx@aux@defaultrefcontext{0}{backpropagation_algorithm}{nty/global//global/global}
\abx@aux@defaultrefcontext{0}{auto_encoder}{nty/global//global/global}
\abx@aux@defaultrefcontext{0}{wiki-kuenstliches_neuronales_netz}{nty/global//global/global}
\abx@aux@defaultrefcontext{0}{wiki-nervenzelle}{nty/global//global/global}
\abx@aux@defaultrefcontext{0}{wiki-selbstorganisierende_karte}{nty/global//global/global}
\abx@aux@defaultrefcontext{0}{wiki-self_organizing_map}{nty/global//global/global}
\abx@aux@defaultrefcontext{0}{wiki-synapse}{nty/global//global/global}
